…
# show the duplicate movies
movies %>% count(title, sort=T)

## # A tibble: 2,907 x 2
##    title                           n
##    <chr>                       <int>
##  1 Home                            3
##  2 A Nightmare on Elm Street       2
##  3 Across the Universe             2
##  4 Alice in Wonderland             2
##  5 Aloha                           2
##  6 Around the World in 80 Days     2
##  7 Brothers                        2
##  8 Carrie                          2
##  9 Chasing Liberty                 2
## 10 Cinderella                      2
## # … with 2,897 more rows
…
# `distinct` function can only keep the first entry but not latest
# movies <- distinct(movies, title, .keep_all=T)
length(unique(movies$title))

## [1] 2907

movies <- movies %>% 
  group_by(title) %>% 
  filter(votes == max(votes)) %>%
  ungroup()

# there are still duplicates
movies %>% count(title, sort=T)

## # A tibble: 2,907 x 2
##    title                          n
##    <chr>                      <int>
##  1 Chasing Liberty                2
##  2 10 Cloverfield Lane            1
##  3 10 Days in a Madhouse          1
##  4 10 Things I Hate About You     1
##  5 102 Dalmatians                 1
##  6 10th & Wolf                    1
##  7 12 Rounds                      1
##  8 12 Years a Slave               1
##  9 127 Hours                      1
## 10 13 Going on 30                 1
## # … with 2,897 more rows
…
